{
  "title": "Sample Experience",
  "attractLoop": ["assets/attract.mp4"],
  "microsite": {
    "overlay": {
      "elements": []
    },
    "pages": [
      {
        "pageType": "carousel",
        "pageName": "main-menu",
        "analyticsKey": "main-menu",
        "cards": [
          {
            "id": 1,
            "name": "menu",
            "type": "genericCard",
            "analyticsKey": "menu",
            "styles": {},
            "elements": [
              {
                "type": "image",
                "url": "assets/left-arrow.png",
                "ordinal": 2,
                "styles": {
                  "height": 3,
                  "width": 5,
                  "left": 4,
                  "top": 2,
                  "z-index": 1
                }
              },
              {
                "type": "text",
                "html": "<div style=\"color: white;font-size: 16px;font-family: Myriad Regular;text-align: left; height: 5vh;width: 40vw; position: absolute; left: 10vw;top: 2.4vh;z-index: 1; \">Explore device</div>"
              },
              {
                "type": "image",
                "url": "assets/logo-viewspot.png",
                "ordinal": 2,
                "styles": {
                  "height": 8,
                  "width": 80,
                  "left": 10,
                  "top": 25,
                  "z-index": 1
                }
              },
              {
                "type": "text",
                "html": "<div style=\"background-color: #F9C534; color: white;font-size: 23px;font-family: Myriad Bold;text-align: left; height: 10vh;width: 80vw; position: absolute; left: 0;top: 60vh;z-index: 1; padding-left: 20px; display: flex; align-items: center; \">Horizontal Carousel One</div>",
                "link": "page1"
              },
              {
                "type": "image",
                "url": "assets/image1.png",
                "ordinal": 2,
                "styles": {
                  "height": 6,
                  "width": 10,
                  "left": 85,
                  "top": 62,
                  "z-index": 3
                },
                "link": "page1"
              },
              {
                "type": "text",
                "html": "<div style=\"background-color: #D9AA2C; height: 10vh;width: 20vw; position: absolute; left: 80vw ;top: 60vh;z-index: 2; \"></div>",
                "link": "page1"
              },
              {
                "type": "text",
                "html": "<div style=\"background-color: #41B395; color: white;font-size: 23px;font-family: Myriad Bold;text-align: left; height: 10vh;width: 80vw; position: absolute; left: 0;top: 70vh;z-index: 1; padding-left: 20px; display: flex; align-items: center; \">Horizontal Carousel Two</div>",
                "link": "page2"
              },
              {
                "type": "image",
                "url": "assets/image2.png",
                "ordinal": 2,
                "styles": {
                  "height": 6,
                  "width": 10,
                  "left": 85,
                  "top": 72,
                  "z-index": 3
                },
                "link": "page2"
              },
              {
                "type": "text",
                "html": "<div style=\"background-color: #379B7F; height: 10vh;width: 20vw; position: absolute; left: 80vw ;top: 70vh;z-index: 2; \"></div>",
                "link": "page2"
              },
              {
                "type": "text",
                "html": "<div style=\"background-color: #E95B29; color: white;font-size: 23px;font-family: Myriad Bold;text-align: left; height: 10vh;width: 80vw; position: absolute; left: 0;top: 80vh;z-index: 1; padding-left: 20px; display: flex; align-items: center; \">Vertical Carousel</div>",
                "link": "page3"
              },
              {
                "type": "image",
                "url": "assets/image3.png",
                "ordinal": 2,
                "styles": {
                  "height": 6,
                  "width": 10,
                  "left": 85,
                  "top": 82,
                  "z-index": 3
                },
                "link": "page3"
              },
              {
                "type": "text",
                "html": "<div style=\"background-color: #CB5020; height: 10vh;width: 20vw; position: absolute; left: 80vw ;top: 80vh;z-index: 2; \"></div>",
                "link": "page3"
              },
              {
                "type": "text",
                "html": "<div style=\"background-color: #40CCE6; color: white;font-size: 23px;font-family: Myriad Bold;text-align: left; height: 10vh;width: 80vw; position: absolute; left: 0;top: 90vh;z-index: 1; padding-left: 20px; display: flex; align-items: center; \">Single Card Carousel</div>",
                "link": "page4"
              },
              {
                "type": "image",
                "url": "assets/image4.png",
                "ordinal": 2,
                "styles": {
                  "height": 6,
                  "width": 10,
                  "left": 85,
                  "top": 92,
                  "z-index": 3
                },
                "link": "page4"
              },
              {
                "type": "text",
                "html": "<div style=\"background-color: #36B1C9; height: 10vh;width: 20vw; position: absolute; left: 80vw ;top: 90vh;z-index: 2; \"></div>",
                "link": "page4"
              }
            ]
          }
        ]
      },
      {
        "pageType": "carousel",
        "swipeDirection": "horizontal",
        "pageName": "page1",
        "analyticsKey": "page1",
        "cards": [
          {
            "id": 1,
            "name": "promo 1",
            "type": "genericCard",
            "analyticsKey": "page1promo1",
            "styles": {
              "background-url": "assets/cs1.jpg"
            },
            "elements": [
              {
                "type": "image",
                "url": "assets/x-button.png",
                "ordinal": 2,
                "styles": {
                  "height": 3,
                  "width": 5,
                  "left": 90,
                  "top": 3,
                  "z-index": 1
                },
                "link": "main-menu"
              },
              {
                "type": "text",
                "html": "<div style=\"color: white;font-size: 36px;font-family: Myriad Bold;text-align: left; height: 10vh;width: 100vw; position: absolute; left: 0vw;top: 60vh;z-index: 1; padding: 36px; \">Card 1 Header</div>"
              },
              {
                "type": "text",
                "html": "<div style=\"color: white;font-size: 16px;font-family: Myriad Regular;text-align: left; height: 40vh;width: 100vw; position: absolute; left: 0vw;top: 70vh;z-index: 1; padding: 36px; \">This is test text. This is test text. This is test text. This is test text. This is test text. This is test text. This is test text. This is test text. This is test text. This is test text. </div>"
              }
            ]
          },
          {
            "id": 2,
            "name": "promo 2",
            "type": "genericCard",
            "analyticsKey": "page1promo2",
            "styles": {
              "background-color": "#333",
              "background-url": "assets/cs2.jpg"
            },
            "elements": [
              {
                "type": "image",
                "url": "assets/x-button.png",
                "ordinal": 2,
                "styles": {
                  "height": 3,
                  "width": 5,
                  "left": 90,
                  "top": 3,
                  "z-index": 1
                },
                "link": "main-menu"
              },
              {
                "type": "text",
                "html": "<div style=\"color: white;font-size: 36px;font-family: Myriad Bold;text-align: left; height: 10vh;width: 100vw; position: absolute; left: 0vw;top: 60vh;z-index: 1; padding: 36px; \">Card 2 Header</div>"
              },
              {
                "type": "text",
                "html": "<div style=\"color: white;font-size: 16px;font-family: Myriad Regular;text-align: left; height: 40vh;width: 100vw; position: absolute; left: 0vw;top: 70vh;z-index: 1; padding: 36px; \">This is test text. This is test text. This is test text. This is test text. This is test text. This is test text. This is test text. This is test text. This is test text. This is test text. </div>"
              }
            ]
          },
          {
            "id": 3,
            "name": "promo 3",
            "type": "genericCard",
            "analyticsKey": "page1promo3",
            "styles": {
              "background-url": "assets/cs3.jpg"
            },
            "elements": [
              {
                "type": "image",
                "url": "assets/x-button.png",
                "ordinal": 2,
                "styles": {
                  "height": 3,
                  "width": 5,
                  "left": 90,
                  "top": 3,
                  "z-index": 1
                },
                "link": "main-menu"
              },
              {
                "type": "text",
                "html": "<div style=\"color: white;font-size: 36px;font-family: Myriad Bold;text-align: left; height: 10vh;width: 100vw; position: absolute; left: 0vw;top: 60vh;z-index: 1; padding: 36px; \">Card 3 Header</div>"
              },
              {
                "type": "text",
                "html": "<div style=\"color: white;font-size: 16px;font-family: Myriad Regular;text-align: left; height: 40vh;width: 100vw; position: absolute; left: 0vw;top: 70vh;z-index: 1; padding: 36px; \">This is test text. This is test text. This is test text. This is test text. This is test text. This is test text. This is test text. This is test text. This is test text. This is test text. </div>"
              }
            ]
          }
        ]
      },
      {
        "pageType": "carousel",
        "swipeDirection": "horizontal",
        "pageName": "page2",
        "analyticsKey": "page2",
        "cards": [
          {
            "id": 1,
            "name": "promo 1",
            "type": "genericCard",
            "analyticsKey": "page2promo1",
            "styles": {
              "background-url": "assets/vs1.jpg"
            },
            "elements": [
              {
                "type": "image",
                "url": "assets/x-button.png",
                "ordinal": 2,
                "styles": {
                  "height": 3,
                  "width": 5,
                  "left": 90,
                  "top": 3,
                  "z-index": 1
                },
                "link": "main-menu"
              },
              {
                "type": "text",
                "html": "<div style=\"color: white;font-size: 36px;font-family: Myriad Bold;text-align: left; height: 10vh;width: 100vw; position: absolute; left: 0vw;top: 60vh;z-index: 1; padding: 36px; \">Card 1 Header</div>"
              },
              {
                "type": "text",
                "html": "<div style=\"color: white;font-size: 16px;font-family: Myriad Regular;text-align: left; height: 40vh;width: 100vw; position: absolute; left: 0vw;top: 70vh;z-index: 1; padding: 36px; \">This is test text. This is test text. This is test text. This is test text. This is test text. This is test text. This is test text. This is test text. This is test text. This is test text. </div>"
              }
            ]
          },
          {
            "id": 2,
            "name": "promo 2",
            "type": "genericCard",
            "analyticsKey": "page2promo2",
            "styles": {
              "background-url": "assets/vs3.jpg"
            },
            "elements": [
              {
                "type": "image",
                "url": "assets/x-button.png",
                "ordinal": 2,
                "styles": {
                  "height": 3,
                  "width": 5,
                  "left": 90,
                  "top": 3,
                  "z-index": 1
                },
                "link": "main-menu"
              },
              {
                "type": "text",
                "html": "<div style=\"color: white;font-size: 36px;font-family: Myriad Bold;text-align: left; height: 10vh;width: 100vw; position: absolute; left: 0vw;top: 60vh;z-index: 1; padding: 36px; \">Card 2 Header</div>"
              },
              {
                "type": "text",
                "html": "<div style=\"color: white;font-size: 16px;font-family: Myriad Regular;text-align: left; height: 40vh;width: 100vw; position: absolute; left: 0vw;top: 70vh;z-index: 1; padding: 36px; \">This is test text. This is test text. This is test text. This is test text. This is test text. This is test text. This is test text. This is test text. This is test text. This is test text. </div>"
              }
            ]
          }
        ]
      },
      {
        "pageType": "carousel",
        "swipeDirection": "vertical",
        "pageName": "page3",
        "analyticsKey": "page3",
        "cards": [
          {
            "id": 1,
            "name": "promo 1",
            "type": "genericCard",
            "analyticsKey": "page3promo1",
            "styles": {
              "background-url": "assets/sp1.jpg"
            },
            "elements": [
              {
                "type": "image",
                "url": "assets/x-button.png",
                "ordinal": 2,
                "styles": {
                  "height": 3,
                  "width": 5,
                  "left": 90,
                  "top": 3,
                  "z-index": 1
                },
                "link": "main-menu"
              },
              {
                "type": "text",
                "html": "<div style=\"color: white;font-size: 36px;font-family: Myriad Bold;text-align: left; height: 10vh;width: 100vw; position: absolute; left: 0vw;top: 60vh;z-index: 1; padding: 36px; \">Card 1 Header</div>"
              },
              {
                "type": "text",
                "html": "<div style=\"color: white;font-size: 16px;font-family: Myriad Regular;text-align: left; height: 40vh;width: 100vw; position: absolute; left: 0vw;top: 70vh;z-index: 1; padding: 36px; \">This is test text. This is test text. This is test text. This is test text. This is test text. This is test text. This is test text. This is test text. This is test text. This is test text. </div>"
              }
            ]
          },
          {
            "id": 2,
            "name": "promo 2",
            "type": "genericCard",
            "analyticsKey": "page3promo2",
            "styles": {
              "background-color": "#333",
              "background-url": "assets/sp2.jpg"
            },
            "elements": [
              {
                "type": "image",
                "url": "assets/x-button.png",
                "ordinal": 2,
                "styles": {
                  "height": 3,
                  "width": 5,
                  "left": 90,
                  "top": 3,
                  "z-index": 1
                },
                "link": "main-menu"
              },
              {
                "type": "text",
                "html": "<div style=\"color: white;font-size: 36px;font-family: Myriad Bold;text-align: left; height: 10vh;width: 100vw; position: absolute; left: 0vw;top: 60vh;z-index: 1; padding: 36px; \">Card 2 Header</div>"
              },
              {
                "type": "text",
                "html": "<div style=\"color: white;font-size: 16px;font-family: Myriad Regular;text-align: left; height: 40vh;width: 100vw; position: absolute; left: 0vw;top: 70vh;z-index: 1; padding: 36px; \">This is test text. This is test text. This is test text. This is test text. This is test text. This is test text. This is test text. This is test text. This is test text. This is test text. </div>"
              }
            ]
          },
          {
            "id": 3,
            "name": "promo 3",
            "type": "genericCard",
            "analyticsKey": "page3promo3",
            "styles": {
              "background-url": "assets/sp3.jpg"
            },
            "elements": [
              {
                "type": "image",
                "url": "assets/x-button.png",
                "ordinal": 2,
                "styles": {
                  "height": 3,
                  "width": 5,
                  "left": 90,
                  "top": 3,
                  "z-index": 1
                },
                "link": "main-menu"
              },
              {
                "type": "text",
                "html": "<div style=\"color: white;font-size: 36px;font-family: Myriad Bold;text-align: left; height: 10vh;width: 100vw; position: absolute; left: 0vw;top: 60vh;z-index: 1; padding: 36px; \">Card 3 Header</div>"
              },
              {
                "type": "text",
                "html": "<div style=\"color: white;font-size: 16px;font-family: Myriad Regular;text-align: left; height: 40vh;width: 100vw; position: absolute; left: 0vw;top: 70vh;z-index: 1; padding: 36px; \">This is test text. This is test text. This is test text. This is test text. This is test text. This is test text. This is test text. This is test text. This is test text. This is test text. </div>"
              }
            ]
          },
          {
            "id": 4,
            "name": "promo 4",
            "type": "genericCard",
            "analyticsKey": "page3promo4",
            "styles": {
              "background-url": "assets/sp4.jpg"
            },
            "elements": [
              {
                "type": "image",
                "url": "assets/x-button.png",
                "ordinal": 2,
                "styles": {
                  "height": 3,
                  "width": 5,
                  "left": 90,
                  "top": 3,
                  "z-index": 1
                },
                "link": "main-menu"
              },
              {
                "type": "text",
                "html": "<div style=\"color: white;font-size: 36px;font-family: Myriad Bold;text-align: left; height: 10vh;width: 100vw; position: absolute; left: 0vw;top: 60vh;z-index: 1; padding: 36px; \">Card 4 Header</div>"
              },
              {
                "type": "text",
                "html": "<div style=\"color: white;font-size: 16px;font-family: Myriad Regular;text-align: left; height: 40vh;width: 100vw; position: absolute; left: 0vw;top: 70vh;z-index: 1; padding: 36px; \">This is test text. This is test text. This is test text. This is test text. This is test text. This is test text. This is test text. This is test text. This is test text. This is test text. </div>"
              }
            ]
          }
        ]
      },
      {
        "pageType": "carousel",
        "swipeDirection": "horizontal",
        "pageName": "page4",
        "analyticsKey": "page4",
        "cards": [
          {
            "id": 1,
            "name": "promo 1",
            "type": "genericCard",
            "analyticsKey": "page4promo1",
            "styles": {
              "background-url": "assets/pr1.jpg"
            },
            "elements": [
              {
                "type": "image",
                "url": "assets/x-button.png",
                "ordinal": 2,
                "styles": {
                  "height": 3,
                  "width": 5,
                  "left": 90,
                  "top": 3,
                  "z-index": 1
                },
                "link": "main-menu"
              },
              {
                "type": "text",
                "html": "<div style=\"color: white;font-size: 36px;font-family: Myriad Bold;text-align: left; height: 10vh;width: 100vw; position: absolute; left: 0vw;top: 10vh;z-index: 1; padding: 36px; \">Card 1 Header</div>"
              },
              {
                "type": "text",
                "html": "<div style=\"color: white;font-size: 24px;font-family: Myriad Bold;text-align: left; height: 10vh;width: 100vw; position: absolute; left: 0vw;top: 25vh;z-index: 1; padding: 36px; \">Subhead 1</div>"
              },
              {
                "type": "text",
                "html": "<div style=\"color: white;font-size: 16px;font-family: Myriad Regular;text-align: left; height: 40vh;width: 100vw; position: absolute; left: 0vw;top: 30vh;z-index: 1; padding: 36px; \">This is test text. This is test text. This is test text. This is test text. This is test text. This is test text. This is test text. This is test text. This is test text. This is test text. </div>"
              },
              {
                "type": "text",
                "html": "<div style=\"color: white;font-size: 24px;font-family: Myriad Bold;text-align: left; height: 10vh;width: 100vw; position: absolute; left: 0vw;top: 45vh;z-index: 1; padding: 36px; \">Subhead 2</div>"
              },
              {
                "type": "text",
                "html": "<div style=\"color: white;font-size: 16px;font-family: Myriad Regular;text-align: left; height: 40vh;width: 100vw; position: absolute; left: 0vw;top: 50vh;z-index: 1; padding: 36px; \">This is test text. This is test text. This is test text. This is test text. This is test text. This is test text. This is test text. This is test text. This is test text. This is test text. </div>"
              },
              {
                "type": "text",
                "html": "<div style=\"color: white;font-size: 24px;font-family: Myriad Bold;text-align: left; height: 10vh;width: 100vw; position: absolute; left: 0vw;top: 65vh;z-index: 1; padding: 36px; \">Subhead 3</div>"
              },
              {
                "type": "text",
                "html": "<div style=\"color: white;font-size: 16px;font-family: Myriad Regular;text-align: left; height: 40vh;width: 100vw; position: absolute; left: 0vw;top: 70vh;z-index: 1; padding: 36px; \">This is test text. This is test text. This is test text. This is test text. This is test text. This is test text. This is test text. This is test text. This is test text. This is test text. </div>"
              }
            ]
          }
        ]
      }
    ]
  }
}
