{
  "version": "1",
  "asset_prefix": "",
  "screens": {
    "main": {
      "bg_color": -16777216,
      "orientation": "p",
      "logname": "main",
      "brightness": 0.5,
      "objects": [
        {
          "type": "timer",
          "delay": 100,
          "action": [
            ["resetSystemFont"],
            ["reloadConfig"],
            ["swap", "mainwebview"]
          ]
        }
      ]
    },
    "mainwebview": {
      "bg_color": -16777216,
      "orientation": "p",
      "brightness": 0.5,
      "logname": "mainwebview",
      "objects": [
        {
          "id": "webview",
          "type": "webview",
          "debug": true,
          "back": true,
          "clear_cache": false,
          "file": "html/index.html",
          "url1": "http://localhost:3000/",
          "x": 0,
          "y": 0,
          "w": 1,
          "h": 1
        },
        {   
          "id":"heartbeat",
          "type": "timer",
          "delay": 10800000,
          "action": [
            ["refresh"],
            ["log", "heartbeat_timer"],
            ["logpref", "cpid"],
            ["closeLogSession"]
          ]
        },        
        {
          "type": "timer",
          "delay": 30000,
          "action": [
            ["refresh"],
            ["setvar_special", "sleep_control_1", "location_acquired"]
          ]
        },
        {
          "id": "sleep_control_1",
          "type": "props",
          "states": [
            {
              "action": [[".debug", "location NOT ACQUIRED"]]
            },
            {
              "action": [
                [".debug", "location ACQUIRED"],
                ["setvar_special", "sleep_control_2", "time_local_hours"]
              ]
            },
            {}
          ],
          "default": 0
        },
        {
          "id": "sleep_control_2",
          "type": "props",
          "states": [
            {
              "action": [
                [".debug", "hour 0"],
                ["log", "sleep"],
                ["set_block_screen_off_restart", true],
                ["set_screen_off_delay", 20000],
                ["restartSoon", 21600000],
                ["exit", 0]
              ]
            },
            {
              "action": [
                [".debug", "hour 1"],
                ["log", "sleep"],
                ["set_block_screen_off_restart", true],
                ["set_screen_off_delay", 20000],
                ["restartSoon", 18000000],
                ["exit", 0]
              ]
            },
            {
              "action": [
                [".debug", "hour 2"],
                ["log", "sleep"],
                ["set_block_screen_off_restart", true],
                ["set_screen_off_delay", 20000],
                ["restartSoon", 14400000],
                ["exit", 0]
              ]
            },
            {
              "action": [
                [".debug", "hour 3"],
                ["log", "sleep"],
                ["set_block_screen_off_restart", true],
                ["set_screen_off_delay", 20000],
                ["restartSoon", 10800000],
                ["exit", 0]
              ]
            },
            {
              "action": [
                [".debug", "hour 4"],
                ["log", "sleep"],
                ["set_block_screen_off_restart", true],
                ["set_screen_off_delay", 20000],
                ["restartSoon", 7200000],
                ["exit", 0]
              ]
            },
            {
              "action": [
                [".debug", "hour 5"],
                ["log", "sleep"],
                ["set_block_screen_off_restart", true],
                ["set_screen_off_delay", 20000],
                ["restartSoon", 3600000],
                ["exit", 0]
              ]
            },
            {
              "action": [
                [".debug", "hour 6"],
                ["set_block_screen_off_restart", false]
              ]
            },
            {
              "action": [
                [".debug", "hour 7"],
                ["set_block_screen_off_restart", false]
              ]
            },
            {
              "action": [
                [".debug", "hour 8"],
                ["set_block_screen_off_restart", false]
              ]
            },
            {
              "action": [
                [".debug", "hour 9"],
                ["set_block_screen_off_restart", false]
              ]
            },
            {
              "action": [
                [".debug", "hour 10"],
                ["set_block_screen_off_restart", false]
              ]
            },
            {
              "action": [
                [".debug", "hour 11"],
                ["set_block_screen_off_restart", false]
              ]
            },
            {
              "action": [
                [".debug", "hour 12"],
                ["set_block_screen_off_restart", false]
              ]
            },
            {
              "action": [
                [".debug", "hour 13"],
                ["set_block_screen_off_restart", false]
              ]
            },
            {
              "action": [
                [".debug", "hour 14"],
                ["set_block_screen_off_restart", false]
              ]
            },
            {
              "action": [
                [".debug", "hour 15"],
                ["set_block_screen_off_restart", false]
              ]
            },
            {
              "action": [
                [".debug", "hour 16"],
                ["set_block_screen_off_restart", false]
              ]
            },
            {
              "action": [
                [".debug", "hour 17"],
                ["set_block_screen_off_restart", false]
              ]
            },
            {
              "action": [
                [".debug", "hour 18"],
                ["set_block_screen_off_restart", false]
              ]
            },
            {
              "action": [
                [".debug", "hour 19"],
                ["set_block_screen_off_restart", false]
              ]
            },
            {
              "action": [
                [".debug", "hour 20"],
                ["set_block_screen_off_restart", false]
              ]
            },
            {
              "action": [
                [".debug", "hour 21"],
                ["set_block_screen_off_restart", false]
              ]
            },
            {
              "action": [
                [".debug", "hour 22"],
                ["set_block_screen_off_restart", false]
              ]
            },
            {
              "action": [
                [".debug", "hour 23"],
                ["log", "sleep"],
                ["set_block_screen_off_restart", true],
                ["set_screen_off_delay", 20000],
                ["restartSoon", 25200000],
                ["exit", 0]
              ]
            },
            {
              "action": []
            },
            {}
          ],
          "default": 24
        }
      ]
    },
    "dummy": {}
  }
}
